{
    "pageInfo":{
        "pageIndex":1,
        "pageSize":10,
        "totalRows":104,
        "totalPages":11
    },
    "comments": [{
                 "id": 1,
                 "content": "好",
                 "point": 0,
                 "status": 1,
                 "userID": "1492741532346",
                 "createdAt": "2017-04-21T06:56:37.000Z",
                 "updatedAt": "2017-04-21T06:56:37.000Z",
                 "courseId": 1,
                 "userInfo": {
                 "id": 7,
                 "nickname": "啊啊啊",
                 "trueName": "陈三丁",
                 "avatar": "a1493802890356.png",
                 "email": "1812422367@qq.com",
                 "mobile": "13122139591",
                 "major": "信息安全",
                 "brief": "李悦老师的个人简介李悦老师的个人简介李悦老师的个人简介李悦老师的个人简介李悦老师的个人简介李悦老师的个人简介李悦老师的个人简介李悦老师的个人简介",
                 "signature": "年轻的时候喜欢一个人总是盲目的，直到后来我才明白这个道理，"
                 }
                 }, {
                 "id": 3,
                 "content": "点赞！！",
                 "point": 1,
                 "status": 1,
                 "userID": "1492741532346",
                 "createdAt": "2017-04-21T07:13:35.000Z",
                 "updatedAt": "2017-04-21T07:13:35.000Z",
                 "courseId": 1,
                 "userInfo": {
                 "id": 7,
                 "nickname": "啊啊啊",
                 "trueName": "陈三丁",
                 "avatar": "a1493802890356.png",
                 "email": "1812422367@qq.com",
                 "mobile": "13122139591",
                 "major": "信息安全",
                 "brief": "李悦老师的个人简介李悦老师的个人简介李悦老师的个人简介李悦老师的个人简介李悦老师的个人简介李悦老师的个人简介李悦老师的个人简介李悦老师的个人简介",
                 "signature": "年轻的时候喜欢一个人总是盲目的，直到后来我才明白这个道理，"
                 }
                 }, {
                 "id": 4,
                 "content": "多谢老师",
                 "point": 2,
                 "status": 1,
                 "userID": "1492741532346",
                 "createdAt": "2017-04-21T07:13:51.000Z",
                 "updatedAt": "2017-04-21T07:13:51.000Z",
                 "courseId": 1,
                 "userInfo": {
                 "id": 7,
                 "nickname": "啊啊啊",
                 "trueName": "陈三丁",
                 "avatar": "a1493802890356.png",
                 "email": "1812422367@qq.com",
                 "mobile": "13122139591",
                 "major": "信息安全",
                 "brief": "李悦老师的个人简介李悦老师的个人简介李悦老师的个人简介李悦老师的个人简介李悦老师的个人简介李悦老师的个人简介李悦老师的个人简介李悦老师的个人简介",
                 "signature": "年轻的时候喜欢一个人总是盲目的，直到后来我才明白这个道理，"
                 }
                 }, {
                 "id": 5,
                 "content": "楼上请问下次课在哪儿上的",
                 "point": 3,
                 "status": 1,
                 "userID": "1492741532346",
                 "createdAt": "2017-04-21T07:15:08.000Z",
                 "updatedAt": "2017-04-21T07:15:08.000Z",
                 "courseId": 1,
                 "userInfo": {
                 "id": 7,
                 "nickname": "啊啊啊",
                 "trueName": "陈三丁",
                 "avatar": "a1493802890356.png",
                 "email": "1812422367@qq.com",
                 "mobile": "13122139591",
                 "major": "信息安全",
                 "brief": "李悦老师的个人简介李悦老师的个人简介李悦老师的个人简介李悦老师的个人简介李悦老师的个人简介李悦老师的个人简介李悦老师的个人简介李悦老师的个人简介",
                 "signature": "年轻的时候喜欢一个人总是盲目的，直到后来我才明白这个道理，"
                 }
                 }, {
                 "id": 6,
                 "content": "么么哒",
                 "point": 4,
                 "status": 1,
                 "userID": "1492741532346",
                 "createdAt": "2017-04-21T07:17:29.000Z",
                 "updatedAt": "2017-04-21T07:17:29.000Z",
                 "courseId": 1,
                 "userInfo": {
                 "id": 7,
                 "nickname": "啊啊啊",
                 "trueName": "陈三丁",
                 "avatar": "a1493802890356.png",
                 "email": "1812422367@qq.com",
                 "mobile": "13122139591",
                 "major": "信息安全",
                 "brief": "李悦老师的个人简介李悦老师的个人简介李悦老师的个人简介李悦老师的个人简介李悦老师的个人简介李悦老师的个人简介李悦老师的个人简介李悦老师的个人简介",
                 "signature": "年轻的时候喜欢一个人总是盲目的，直到后来我才明白这个道理，"
                 }
                 }, {
                 "id": 7,
                 "content": "一楼",
                 "point": 1,
                 "status": 1,
                 "userID": "1492741532346",
                 "createdAt": "2017-04-21T07:17:51.000Z",
                 "updatedAt": "2017-04-21T07:17:51.000Z",
                 "courseId": 1,
                 "userInfo": {
                 "id": 7,
                 "nickname": "啊啊啊",
                 "trueName": "陈三丁",
                 "avatar": "a1493802890356.png",
                 "email": "1812422367@qq.com",
                 "mobile": "13122139591",
                 "major": "信息安全",
                 "brief": "李悦老师的个人简介李悦老师的个人简介李悦老师的个人简介李悦老师的个人简介李悦老师的个人简介李悦老师的个人简介李悦老师的个人简介李悦老师的个人简介",
                 "signature": "年轻的时候喜欢一个人总是盲目的，直到后来我才明白这个道理，"
                 }
                 }, {
                 "id": 8,
                 "content": "Very good!!!",
                 "point": 5,
                 "status": 1,
                 "userID": "1492956207912",
                 "createdAt": "2017-05-12T13:40:04.000Z",
                 "updatedAt": "2017-05-12T13:40:04.000Z",
                 "courseId": 1,
                 "userInfo": {
                 "id": 13,
                 "nickname": "空的境界",
                 "trueName": "迷之男",
                 "avatar": "a1493816460475.png",
                 "email": "1812422367@qq.cc",
                 "mobile": "15000756314",
                 "major": "信安",
                 "brief": "李悦老师的个人简介李悦老师的个人简介李悦老师的个人简介",
                 "signature": "Hahah"
                 }
                 }, {
                 "id": 9,
                 "content": "Very bad!!",
                 "point": 1,
                 "status": 1,
                 "userID": "1492956207912",
                 "createdAt": "2017-05-12T13:45:10.000Z",
                 "updatedAt": "2017-05-12T13:45:10.000Z",
                 "courseId": 1,
                 "userInfo": {
                 "id": 13,
                 "nickname": "空的境界",
                 "trueName": "迷之男",
                 "avatar": "a1493816460475.png",
                 "email": "1812422367@qq.cc",
                 "mobile": "15000756314",
                 "major": "信安",
                 "brief": "李悦老师的个人简介李悦老师的个人简介李悦老师的个人简介",
                 "signature": "Hahah"
                 }
                 }, {
                 "id": 10,
                 "content": "Xixiix",
                 "point": 2,
                 "status": 1,
                 "userID": "1492956207912",
                 "createdAt": "2017-05-13T03:28:25.000Z",
                 "updatedAt": "2017-05-13T03:28:25.000Z",
                 "courseId": 1,
                 "userInfo": {
                 "id": 13,
                 "nickname": "空的境界",
                 "trueName": "迷之男",
                 "avatar": "a1493816460475.png",
                 "email": "1812422367@qq.cc",
                 "mobile": "15000756314",
                 "major": "信安",
                 "brief": "李悦老师的个人简介李悦老师的个人简介李悦老师的个人简介",
                 "signature": "Hahah"
                 }
                 },{
                 "id": 1,
                 "content": "好",
                 "point": 0,
                 "status": 1,
                 "userID": "1492741532346",
                 "createdAt": "2017-04-21T06:56:37.000Z",
                 "updatedAt": "2017-04-21T06:56:37.000Z",
                 "courseId": 1,
                 "userInfo": {
                 "id": 7,
                 "nickname": "啊啊啊",
                 "trueName": "陈三丁",
                 "avatar": "a1493802890356.png",
                 "email": "1812422367@qq.com",
                 "mobile": "13122139591",
                 "major": "信息安全",
                 "brief": "李悦老师的个人简介李悦老师的个人简介李悦老师的个人简介李悦老师的个人简介李悦老师的个人简介李悦老师的个人简介李悦老师的个人简介李悦老师的个人简介",
                 "signature": "年轻的时候喜欢一个人总是盲目的，直到后来我才明白这个道理，"
                 }
                 },{
                 "id": 1,
                 "content": "好",
                 "point": 0,
                 "status": 1,
                 "userID": "1492741532346",
                 "createdAt": "2017-04-21T06:56:37.000Z",
                 "updatedAt": "2017-04-21T06:56:37.000Z",
                 "courseId": 1,
                 "userInfo": {
                 "id": 7,
                 "nickname": "啊啊啊",
                 "trueName": "陈三丁",
                 "avatar": "a1493802890356.png",
                 "email": "1812422367@qq.com",
                 "mobile": "13122139591",
                 "major": "信息安全",
                 "brief": "李悦老师的个人简介李悦老师的个人简介李悦老师的个人简介李悦老师的个人简介李悦老师的个人简介李悦老师的个人简介李悦老师的个人简介李悦老师的个人简介",
                 "signature": "年轻的时候喜欢一个人总是盲目的，直到后来我才明白这个道理，"
                 }
                 },{
                 "id": 1,
                 "content": "好",
                 "point": 0,
                 "status": 1,
                 "userID": "1492741532346",
                 "createdAt": "2017-04-21T06:56:37.000Z",
                 "updatedAt": "2017-04-21T06:56:37.000Z",
                 "courseId": 1,
                 "userInfo": {
                 "id": 7,
                 "nickname": "啊啊啊",
                 "trueName": "陈三丁",
                 "avatar": "a1493802890356.png",
                 "email": "1812422367@qq.com",
                 "mobile": "13122139591",
                 "major": "信息安全",
                 "brief": "李悦老师的个人简介李悦老师的个人简介李悦老师的个人简介李悦老师的个人简介李悦老师的个人简介李悦老师的个人简介李悦老师的个人简介李悦老师的个人简介",
                 "signature": "年轻的时候喜欢一个人总是盲目的，直到后来我才明白这个道理，"
                 }
                 },{
                 "id": 1,
                 "content": "好",
                 "point": 0,
                 "status": 1,
                 "userID": "1492741532346",
                 "createdAt": "2017-04-21T06:56:37.000Z",
                 "updatedAt": "2017-04-21T06:56:37.000Z",
                 "courseId": 1,
                 "userInfo": {
                 "id": 7,
                 "nickname": "啊啊啊",
                 "trueName": "陈三丁",
                 "avatar": "a1493802890356.png",
                 "email": "1812422367@qq.com",
                 "mobile": "13122139591",
                 "major": "信息安全",
                 "brief": "李悦老师的个人简介李悦老师的个人简介李悦老师的个人简介李悦老师的个人简介李悦老师的个人简介李悦老师的个人简介李悦老师的个人简介李悦老师的个人简介",
                 "signature": "年轻的时候喜欢一个人总是盲目的，直到后来我才明白这个道理，"
                 }
                 },{
                 "id": 1,
                 "content": "好",
                 "point": 0,
                 "status": 1,
                 "userID": "1492741532346",
                 "createdAt": "2017-04-21T06:56:37.000Z",
                 "updatedAt": "2017-04-21T06:56:37.000Z",
                 "courseId": 1,
                 "userInfo": {
                 "id": 7,
                 "nickname": "啊啊啊",
                 "trueName": "陈三丁",
                 "avatar": "a1493802890356.png",
                 "email": "1812422367@qq.com",
                 "mobile": "13122139591",
                 "major": "信息安全",
                 "brief": "李悦老师的个人简介李悦老师的个人简介李悦老师的个人简介李悦老师的个人简介李悦老师的个人简介李悦老师的个人简介李悦老师的个人简介李悦老师的个人简介",
                 "signature": "年轻的时候喜欢一个人总是盲目的，直到后来我才明白这个道理，"
                 }
                 },{
                 "id": 1,
                 "content": "好",
                 "point": 0,
                 "status": 1,
                 "userID": "1492741532346",
                 "createdAt": "2017-04-21T06:56:37.000Z",
                 "updatedAt": "2017-04-21T06:56:37.000Z",
                 "courseId": 1,
                 "userInfo": {
                 "id": 7,
                 "nickname": "啊啊啊",
                 "trueName": "陈三丁",
                 "avatar": "a1493802890356.png",
                 "email": "1812422367@qq.com",
                 "mobile": "13122139591",
                 "major": "信息安全",
                 "brief": "李悦老师的个人简介李悦老师的个人简介李悦老师的个人简介李悦老师的个人简介李悦老师的个人简介李悦老师的个人简介李悦老师的个人简介李悦老师的个人简介",
                 "signature": "年轻的时候喜欢一个人总是盲目的，直到后来我才明白这个道理，"
                 }
                 },{
                 "id": 1,
                 "content": "好",
                 "point": 0,
                 "status": 1,
                 "userID": "1492741532346",
                 "createdAt": "2017-04-21T06:56:37.000Z",
                 "updatedAt": "2017-04-21T06:56:37.000Z",
                 "courseId": 1,
                 "userInfo": {
                 "id": 7,
                 "nickname": "啊啊啊",
                 "trueName": "陈三丁",
                 "avatar": "a1493802890356.png",
                 "email": "1812422367@qq.com",
                 "mobile": "13122139591",
                 "major": "信息安全",
                 "brief": "李悦老师的个人简介李悦老师的个人简介李悦老师的个人简介李悦老师的个人简介李悦老师的个人简介李悦老师的个人简介李悦老师的个人简介李悦老师的个人简介",
                 "signature": "年轻的时候喜欢一个人总是盲目的，直到后来我才明白这个道理，"
                 }
                 },{
                 "id": 1,
                 "content": "好",
                 "point": 0,
                 "status": 1,
                 "userID": "1492741532346",
                 "createdAt": "2017-04-21T06:56:37.000Z",
                 "updatedAt": "2017-04-21T06:56:37.000Z",
                 "courseId": 1,
                 "userInfo": {
                 "id": 7,
                 "nickname": "啊啊啊",
                 "trueName": "陈三丁",
                 "avatar": "a1493802890356.png",
                 "email": "1812422367@qq.com",
                 "mobile": "13122139591",
                 "major": "信息安全",
                 "brief": "李悦老师的个人简介李悦老师的个人简介李悦老师的个人简介李悦老师的个人简介李悦老师的个人简介李悦老师的个人简介李悦老师的个人简介李悦老师的个人简介",
                 "signature": "年轻的时候喜欢一个人总是盲目的，直到后来我才明白这个道理，"
                 }
                 },{
                 "id": 1,
                 "content": "好",
                 "point": 0,
                 "status": 1,
                 "userID": "1492741532346",
                 "createdAt": "2017-04-21T06:56:37.000Z",
                 "updatedAt": "2017-04-21T06:56:37.000Z",
                 "courseId": 1,
                 "userInfo": {
                 "id": 7,
                 "nickname": "啊啊啊",
                 "trueName": "陈三丁",
                 "avatar": "a1493802890356.png",
                 "email": "1812422367@qq.com",
                 "mobile": "13122139591",
                 "major": "信息安全",
                 "brief": "李悦老师的个人简介李悦老师的个人简介李悦老师的个人简介李悦老师的个人简介李悦老师的个人简介李悦老师的个人简介李悦老师的个人简介李悦老师的个人简介",
                 "signature": "年轻的时候喜欢一个人总是盲目的，直到后来我才明白这个道理，"
                 }
                 },{
                 "id": 1,
                 "content": "好",
                 "point": 0,
                 "status": 1,
                 "userID": "1492741532346",
                 "createdAt": "2017-04-21T06:56:37.000Z",
                 "updatedAt": "2017-04-21T06:56:37.000Z",
                 "courseId": 1,
                 "userInfo": {
                 "id": 7,
                 "nickname": "啊啊啊",
                 "trueName": "陈三丁",
                 "avatar": "a1493802890356.png",
                 "email": "1812422367@qq.com",
                 "mobile": "13122139591",
                 "major": "信息安全",
                 "brief": "李悦老师的个人简介李悦老师的个人简介李悦老师的个人简介李悦老师的个人简介李悦老师的个人简介李悦老师的个人简介李悦老师的个人简介李悦老师的个人简介",
                 "signature": "年轻的时候喜欢一个人总是盲目的，直到后来我才明白这个道理，"
                 }
                 },{
                 "id": 1,
                 "content": "好",
                 "point": 0,
                 "status": 1,
                 "userID": "1492741532346",
                 "createdAt": "2017-04-21T06:56:37.000Z",
                 "updatedAt": "2017-04-21T06:56:37.000Z",
                 "courseId": 1,
                 "userInfo": {
                 "id": 7,
                 "nickname": "啊啊啊",
                 "trueName": "陈三丁",
                 "avatar": "a1493802890356.png",
                 "email": "1812422367@qq.com",
                 "mobile": "13122139591",
                 "major": "信息安全",
                 "brief": "李悦老师的个人简介李悦老师的个人简介李悦老师的个人简介李悦老师的个人简介李悦老师的个人简介李悦老师的个人简介李悦老师的个人简介李悦老师的个人简介",
                 "signature": "年轻的时候喜欢一个人总是盲目的，直到后来我才明白这个道理，"
                 }
                 },{
                 "id": 1,
                 "content": "好",
                 "point": 0,
                 "status": 1,
                 "userID": "1492741532346",
                 "createdAt": "2017-04-21T06:56:37.000Z",
                 "updatedAt": "2017-04-21T06:56:37.000Z",
                 "courseId": 1,
                 "userInfo": {
                 "id": 7,
                 "nickname": "啊啊啊",
                 "trueName": "陈三丁",
                 "avatar": "a1493802890356.png",
                 "email": "1812422367@qq.com",
                 "mobile": "13122139591",
                 "major": "信息安全",
                 "brief": "李悦老师的个人简介李悦老师的个人简介李悦老师的个人简介李悦老师的个人简介李悦老师的个人简介李悦老师的个人简介李悦老师的个人简介李悦老师的个人简介",
                 "signature": "年轻的时候喜欢一个人总是盲目的，直到后来我才明白这个道理，"
                 }
                 },{
                 "id": 1,
                 "content": "好",
                 "point": 0,
                 "status": 1,
                 "userID": "1492741532346",
                 "createdAt": "2017-04-21T06:56:37.000Z",
                 "updatedAt": "2017-04-21T06:56:37.000Z",
                 "courseId": 1,
                 "userInfo": {
                 "id": 7,
                 "nickname": "啊啊啊",
                 "trueName": "陈三丁",
                 "avatar": "a1493802890356.png",
                 "email": "1812422367@qq.com",
                 "mobile": "13122139591",
                 "major": "信息安全",
                 "brief": "李悦老师的个人简介李悦老师的个人简介李悦老师的个人简介李悦老师的个人简介李悦老师的个人简介李悦老师的个人简介李悦老师的个人简介李悦老师的个人简介",
                 "signature": "年轻的时候喜欢一个人总是盲目的，直到后来我才明白这个道理，"
                 }
                 },{
                 "id": 1,
                 "content": "好",
                 "point": 0,
                 "status": 1,
                 "userID": "1492741532346",
                 "createdAt": "2017-04-21T06:56:37.000Z",
                 "updatedAt": "2017-04-21T06:56:37.000Z",
                 "courseId": 1,
                 "userInfo": {
                 "id": 7,
                 "nickname": "啊啊啊",
                 "trueName": "陈三丁",
                 "avatar": "a1493802890356.png",
                 "email": "1812422367@qq.com",
                 "mobile": "13122139591",
                 "major": "信息安全",
                 "brief": "李悦老师的个人简介李悦老师的个人简介李悦老师的个人简介李悦老师的个人简介李悦老师的个人简介李悦老师的个人简介李悦老师的个人简介李悦老师的个人简介",
                 "signature": "年轻的时候喜欢一个人总是盲目的，直到后来我才明白这个道理，"
                 }
                 },{
                 "id": 1,
                 "content": "好",
                 "point": 0,
                 "status": 1,
                 "userID": "1492741532346",
                 "createdAt": "2017-04-21T06:56:37.000Z",
                 "updatedAt": "2017-04-21T06:56:37.000Z",
                 "courseId": 1,
                 "userInfo": {
                 "id": 7,
                 "nickname": "啊啊啊",
                 "trueName": "陈三丁",
                 "avatar": "a1493802890356.png",
                 "email": "1812422367@qq.com",
                 "mobile": "13122139591",
                 "major": "信息安全",
                 "brief": "李悦老师的个人简介李悦老师的个人简介李悦老师的个人简介李悦老师的个人简介李悦老师的个人简介李悦老师的个人简介李悦老师的个人简介李悦老师的个人简介",
                 "signature": "年轻的时候喜欢一个人总是盲目的，直到后来我才明白这个道理，"
                 }
                 }]
}
